<?xml version="1.0" encoding="utf-8"?>
<!-- Generator: Adobe Illustrator 16.0.0, SVG Export Plug-In . SVG Version: 6.00 Build 0)  -->
<!DOCTYPE svg PUBLIC "-//W3C//DTD SVG 1.1//EN" "http://www.w3.org/Graphics/SVG/1.1/DTD/svg11.dtd">
<svg version="1.1" id="Livello_1" xmlns="http://www.w3.org/2000/svg" xmlns:xlink="http://www.w3.org/1999/xlink" x="0px" y="0px"
	 width="200px" height="200px" viewBox="0 0 200 200" enable-background="new 0 0 200 200" xml:space="preserve">
<g>
	<path display="none" fill="#333333" d="M171.866,100.017c0,39.674-32.179,71.846-71.846,71.846
		c-39.705,0-71.887-32.172-71.887-71.846c0-39.699,32.182-71.879,71.887-71.879C139.688,28.137,171.866,60.318,171.866,100.017z"/>
	<path display="none" opacity="0.3" fill="#333333" stroke="#FFFFFF" stroke-width="0.25" enable-background="new    " d="
		M109.51,93.014h21.327l8.497-36.561c0,0-13.005,0-15.896,0c-2.887,0-4.498,4.953-4.498,4.953
		c-3.023-2.088-6.363-3.964-10.172-4.835c-15.816-3.636-31.625,6.048-35.581,21.358l-8.837,38.527
		c-2.432,15.058,6.597,28.073,22.001,31.612c15.411,3.574,31.558-3.637,35.985-18.234c0,0,0.641-2.529,0.684-2.825l4.168-17.81
		c0,0-15.931,0-16.846,0c-2.832,0-5.044,2.685-5.638,4.896l-0.62,2.794l-1.807,7.579c-1.161,4.673-5.828,7.591-10.563,6.476
		c-4.704-1.068-7.646-5.74-6.635-10.454l0,0c0,0,9.006-39.045,9.021-39.09c1.096-4.761,5.846-7.712,10.604-6.625
		c4.728,1.104,7.711,5.846,6.608,10.612C111.314,85.41,109.51,93.014,109.51,93.014z"/>
</g>
<path fill="none" stroke="#d49fc3" stroke-width="2" stroke-miterlimit="10" d="M176.232,100c0-42.103-34.131-76.233-76.232-76.233"
	>
<animateTransform  type="rotate" fill="remove" restart="always" calcMode="linear" additive="replace" accumulate="none" repeatCount="indefinite" dur="1.5s" to="360 100 100" from="0 100 100" attributeName="transform" attributeType="xml">
		</animateTransform>
</path>
<path fill="none" stroke="#984377" stroke-width="2" stroke-miterlimit="10" d="M18.261,100c0,45.143,36.596,81.738,81.739,81.738">
<animateTransform  type="rotate" fill="remove" restart="always" calcMode="linear" additive="replace" accumulate="none" repeatCount="indefinite" dur="1.75s" to="360 100 100" from="0 100 100" attributeName="transform" attributeType="xml">
		</animateTransform>
</path>
<path fill="none" stroke="#c266a2" stroke-width="2" stroke-miterlimit="10" d="M100,13.229c-47.922,0-86.771,38.849-86.771,86.771"
	>
<animateTransform  type="rotate" fill="remove" restart="always" calcMode="linear" additive="replace" accumulate="none" repeatCount="indefinite" dur="2s" to="360 100 100" from="0 100 100" attributeName="transform" attributeType="xml">
		</animateTransform>
</path>
<g display="none">
	<g display="inline">
		<g>
			<defs>
				<rect id="SVGID_1_" x="38" y="79" width="122.977" height="40.504"/>
			</defs>
			<clipPath id="SVGID_2_">
				<use xlink:href="#SVGID_1_"  overflow="visible"/>
			</clipPath>
			<g clip-path="url(#SVGID_2_)" enable-background="new    ">
			</g>
		</g>
	</g>
</g>
</svg>
